{
    "0": {
        "id": "1",
        "name": "N/A",
        "status": 1
    },
    "1": {
        "id": "2",
        "name": "FRS - Fire Resistant",
        "status": 1
    },
    "2": {
        "id": "3",
        "name": "NCM - Non Combistible",
        "status": 1
    },
    "3": {
        "id": "4",
        "name": "Joisted Mas",
        "status": 1
    },
    "4": {
        "id": "5",
        "name": "Frame",
        "status": 1
    }
}
